<svg width="154" height="38" viewBox="0 0 154 38" fill="none" xmlns="http://www.w3.org/2000/svg">
<path fill-rule="evenodd" clip-rule="evenodd" d="M9.86432 19.3242C9.86432 14.4052 6.09185 10.4155 1.43798 10.4155C1.43646 10.4155 1.43417 10.4163 1.43188 10.4163V14.8715C1.43417 14.8715 1.43646 14.8707 1.43798 14.8707C3.76454 14.8707 5.65153 16.8647 5.65153 19.3242C5.65153 21.7838 3.76454 23.7778 1.43798 23.7778C1.43646 23.7778 1.43417 23.777 1.43188 23.777V28.2321C1.43417 28.2321 1.43646 28.233 1.43798 28.233C6.09185 28.233 9.86432 24.2433 9.86432 19.3242" fill="#EFD229"/>
<mask id="mask0" mask-type="alpha" maskUnits="userSpaceOnUse" x="0" y="1" width="19" height="36">
<path fill-rule="evenodd" clip-rule="evenodd" d="M0.930664 1.03027H18.0597V36.0663H0.930664V1.03027Z" fill="white"/>
</mask>
<g mask="url(#mask0)">
<path fill-rule="evenodd" clip-rule="evenodd" d="M0.937386 1.03027H0.93042V5.41019C0.932742 5.41019 0.935064 5.4094 0.937386 5.4094C8.02869 5.4094 13.7795 11.2931 13.7795 18.5484C13.7795 25.8036 8.02869 31.6873 0.937386 31.6873C0.935064 31.6873 0.932742 31.6865 0.93042 31.6865V36.0665H0.937386C10.3925 36.0665 18.0596 28.2228 18.0596 18.5484C18.0596 8.8739 10.3925 1.03027 0.937386 1.03027" fill="#EFD229"/>
</g>
<mask id="mask1" mask-type="alpha" maskUnits="userSpaceOnUse" x="14" y="1" width="36" height="36">
<path fill-rule="evenodd" clip-rule="evenodd" d="M14.4573 1.53271H49.4627V36.5688H14.4573V1.53271Z" fill="white"/>
</mask>
<g mask="url(#mask1)">
<path fill-rule="evenodd" clip-rule="evenodd" d="M31.96 23.4299C29.5429 23.4299 27.5839 21.4684 27.5839 19.0508C27.5839 16.6324 29.5429 14.6709 31.96 14.6709C34.3763 14.6709 36.3353 16.6324 36.3353 19.0508C36.3353 21.4684 34.3763 23.4299 31.96 23.4299M31.96 10.291C27.1274 10.291 23.2078 14.2132 23.2078 19.0508C23.2078 23.8876 27.1274 27.8099 31.96 27.8099C36.7926 27.8099 40.7114 23.8876 40.7114 19.0508C40.7114 14.2132 36.7926 10.291 31.96 10.291M31.96 32.1898C24.7111 32.1898 18.8326 26.3061 18.8326 19.0508C18.8326 11.7956 24.7111 5.91184 31.96 5.91184C39.2089 5.91184 45.0875 11.7956 45.0875 19.0508C45.0875 26.3061 39.2089 32.1898 31.96 32.1898M31.96 1.53271C22.294 1.53271 14.4573 9.37634 14.4573 19.0508C14.4573 28.7253 22.294 36.5689 31.96 36.5689C41.6252 36.5689 49.4627 28.7253 49.4627 19.0508C49.4627 9.37634 41.6252 1.53271 31.96 1.53271" fill="#EFD229"/>
</g>
<mask id="mask2" mask-type="alpha" maskUnits="userSpaceOnUse" x="43" y="1" width="36" height="36">
<path fill-rule="evenodd" clip-rule="evenodd" d="M43.8589 1.69092H78.8643V36.727H43.8589V1.69092Z" fill="white"/>
</mask>
<g mask="url(#mask2)">
<path fill-rule="evenodd" clip-rule="evenodd" d="M61.3616 23.5881C58.9445 23.5881 56.9855 21.6266 56.9855 19.209C56.9855 16.7906 58.9445 14.8291 61.3616 14.8291C63.7779 14.8291 65.7369 16.7906 65.7369 19.209C65.7369 21.6266 63.7779 23.5881 61.3616 23.5881M61.3616 10.4492C56.529 10.4492 52.6095 14.3714 52.6095 19.209C52.6095 24.0458 56.529 27.9681 61.3616 27.9681C66.1934 27.9681 70.113 24.0458 70.113 19.209C70.113 14.3714 66.1934 10.4492 61.3616 10.4492M61.3616 32.348C54.1127 32.348 48.2342 26.4643 48.2342 19.209C48.2342 11.9538 54.1127 6.07005 61.3616 6.07005C68.6105 6.07005 74.4891 11.9538 74.4891 19.209C74.4891 26.4643 68.6105 32.348 61.3616 32.348M61.3616 1.69092C51.6956 1.69092 43.8589 9.53455 43.8589 19.209C43.8589 28.8835 51.6956 36.7271 61.3616 36.7271C71.0268 36.7271 78.8643 28.8835 78.8643 19.209C78.8643 9.53455 71.0268 1.69092 61.3616 1.69092" fill="#EFD229"/>
</g>
<mask id="mask3" mask-type="alpha" maskUnits="userSpaceOnUse" x="74" y="1" width="36" height="36">
<path fill-rule="evenodd" clip-rule="evenodd" d="M74.5657 1.61816H109.571V36.6543H74.5657V1.61816Z" fill="white"/>
</mask>
<g mask="url(#mask3)">
<path fill-rule="evenodd" clip-rule="evenodd" d="M92.0684 23.5154C89.6513 23.5154 87.6923 21.5539 87.6923 19.1363C87.6923 16.7178 89.6513 14.7563 92.0684 14.7563C94.4847 14.7563 96.4437 16.7178 96.4437 19.1363C96.4437 21.5539 94.4847 23.5154 92.0684 23.5154M92.0684 10.3764C87.2358 10.3764 83.3162 14.2986 83.3162 19.1363C83.3162 23.9731 87.2358 27.8953 92.0684 27.8953C96.9002 27.8953 100.82 23.9731 100.82 19.1363C100.82 14.2986 96.9002 10.3764 92.0684 10.3764M92.0684 32.2752C84.8187 32.2752 78.941 26.3915 78.941 19.1363C78.941 11.881 84.8187 5.99729 92.0684 5.99729C99.3173 5.99729 105.195 11.881 105.195 19.1363C105.195 26.3915 99.3173 32.2752 92.0684 32.2752M92.0684 1.61816C82.4024 1.61816 74.5657 9.46179 74.5657 19.1363C74.5657 28.8107 82.4024 36.6544 92.0684 36.6544C101.734 36.6544 109.571 28.8107 109.571 19.1363C109.571 9.46179 101.734 1.61816 92.0684 1.61816" fill="#EFD229"/>
</g>
<mask id="mask4" mask-type="alpha" maskUnits="userSpaceOnUse" x="105" y="1" width="36" height="36">
<path fill-rule="evenodd" clip-rule="evenodd" d="M105.295 1.00781H140.301V36.0439H105.295V1.00781Z" fill="white"/>
</mask>
<g mask="url(#mask4)">
<path fill-rule="evenodd" clip-rule="evenodd" d="M122.799 22.905C120.382 22.905 118.423 20.9435 118.423 18.5259C118.423 16.1075 120.382 14.146 122.799 14.146C125.215 14.146 127.174 16.1075 127.174 18.5259C127.174 20.9435 125.215 22.905 122.799 22.905M122.799 9.76607C117.966 9.76607 114.047 13.6883 114.047 18.5259C114.047 23.3627 117.966 27.285 122.799 27.285C127.63 27.285 131.55 23.3627 131.55 18.5259C131.55 13.6883 127.63 9.76607 122.799 9.76607M122.799 31.6649C115.549 31.6649 109.671 25.7812 109.671 18.5259C109.671 11.2706 115.549 5.38694 122.799 5.38694C130.048 5.38694 135.925 11.2706 135.925 18.5259C135.925 25.7812 130.048 31.6649 122.799 31.6649M122.799 1.00781C113.133 1.00781 105.295 8.85144 105.295 18.5259C105.295 28.2004 113.133 36.044 122.799 36.044C132.464 36.044 140.301 28.2004 140.301 18.5259C140.301 8.85144 132.464 1.00781 122.799 1.00781" fill="#EFD229"/>
</g>
<path fill-rule="evenodd" clip-rule="evenodd" d="M153.093 23.3988C153.043 23.4004 152.996 23.4141 152.946 23.4141C150.658 23.4141 148.803 21.4192 148.803 18.9596C148.803 16.5008 150.658 14.5058 152.946 14.5058C152.996 14.5058 153.043 14.5195 153.093 14.5211V10.0666C153.043 10.0658 152.996 10.0513 152.946 10.0513C148.37 10.0513 144.66 14.0403 144.66 18.9596C144.66 23.8796 148.37 27.8687 152.946 27.8687C152.996 27.8687 153.043 27.8534 153.093 27.8526V23.3988Z" fill="#EFD229"/>
<mask id="mask5" mask-type="alpha" maskUnits="userSpaceOnUse" x="135" y="1" width="19" height="36">
<path fill-rule="evenodd" clip-rule="evenodd" d="M135.915 1.51025H153.188V36.5464H135.915V1.51025Z" fill="white"/>
</mask>
<g mask="url(#mask5)">
<path fill-rule="evenodd" clip-rule="evenodd" d="M153.188 32.1578C153.138 32.1586 153.089 32.1673 153.037 32.1673C145.945 32.1673 140.195 26.2836 140.195 19.0283C140.195 11.7731 145.945 5.88938 153.037 5.88938C153.089 5.88938 153.138 5.89809 153.188 5.89888V1.51817C153.138 1.51738 153.088 1.51025 153.037 1.51025C143.582 1.51025 135.915 9.35388 135.915 19.0283C135.915 28.7028 143.582 36.5464 153.037 36.5464C153.088 36.5464 153.138 36.5393 153.188 36.5385V32.1578Z" fill="#EFD229"/>
</g>
</svg>
