<svg width="166" height="34" viewBox="0 0 166 34" fill="none" xmlns="http://www.w3.org/2000/svg">
<path fill-rule="evenodd" clip-rule="evenodd" d="M165.359 8.22801L157.156 0.0219727H165.359V8.22801ZM148.952 8.22801L140.75 0.0219727H157.155L148.952 8.22801ZM132.546 0.691001L132.546 0.0219727H140.748L132.714 8.05998L132.714 8.89704L124.511 0.691001L132.546 0.691001ZM140.749 8.22801L148.952 16.4333L157.155 8.22801L165.359 16.4333L165.359 24.6401L157.155 16.4333L148.952 24.6401L140.749 16.4333L132.714 24.472V25.3091L124.51 17.1023L116.307 25.3091L108.105 17.1023L99.9016 25.3091V24.6553L91.7048 16.455L83.5017 24.6617L75.2986 16.455L67.0955 24.6617L67.0955 16.455L75.2986 8.24966L83.5017 16.455L91.7048 8.24966L99.908 16.455V17.0959L108.105 8.89704L116.307 17.1023L124.51 8.89704L132.546 16.9343L132.546 16.4333L140.749 8.22801ZM157.155 24.6401L165.358 32.8461H148.953L157.155 24.6401ZM148.952 32.8461L132.547 32.8461L140.749 24.6401L148.952 32.8461ZM108.104 0.691001L99.908 0.691001L99.908 0.043619H91.7056L99.9016 8.24327V8.89704L108.104 0.691001ZM83.5017 8.24966L75.2993 0.043619L91.7041 0.043619L83.5017 8.24966ZM67.0955 8.24966L67.0955 0.043619L75.2978 0.043619L67.0955 8.24966ZM91.7048 24.6617L99.9072 32.8678H83.5024L91.7048 24.6617ZM83.501 32.8678L67.0962 32.8678L75.2986 24.6617L83.501 32.8678ZM58.3225 0.13526L66.5247 8.3413L66.5247 0.13526L58.3225 0.13526ZM41.9158 0.13526L50.1188 8.3413L58.321 0.13526H41.9158ZM33.7122 0.13526L33.7122 8.3413L41.9144 0.13526H33.7122ZM50.1188 16.5466L41.9151 8.3413L33.7122 16.5466V24.7534L41.9151 16.5466L50.1188 24.7534L58.3217 16.5466L66.5247 24.7534V16.5466L58.3217 8.3413L50.1188 16.5466ZM50.1195 32.9594H66.5239L58.3217 24.7534L50.1195 32.9594ZM33.7129 32.9594H50.118L41.9151 24.7534L33.7129 32.9594ZM24.939 0.2269L33.1414 8.43294L33.1414 0.2269H24.939ZM8.53272 0.2269L16.7351 8.43294L24.9375 0.2269L8.53272 0.2269ZM0.328857 0.2269L0.328857 8.43294L8.53124 0.2269L0.328857 0.2269ZM16.7351 16.6382L8.53198 8.43294L0.328857 16.6382V24.845L8.53198 16.6382L16.7351 24.845L24.9382 16.6382L33.1414 24.845L33.1414 16.6382L24.9382 8.43294L16.7351 16.6382ZM33.1406 33.0511L24.9382 24.845L16.7358 33.0511H33.1406ZM0.329599 33.0511H16.7344L8.53198 24.845L0.329599 33.0511ZM108.105 0.691001L116.307 8.89704L124.51 0.691001H108.105ZM116.308 33.5152H132.713L124.51 25.3091L116.308 33.5152ZM99.9023 33.5152L116.307 33.5152L108.105 25.3091L99.9023 33.5152Z" fill="#3CB28C"/>
</svg>
