<svg width="202" height="34" viewBox="0 0 202 34" fill="none" xmlns="http://www.w3.org/2000/svg">
<path fill-rule="evenodd" clip-rule="evenodd" d="M201.962 8.51802V4.27779C199.62 4.27779 197.722 2.37851 197.722 0.0368042V0H193.481V0.0368042C193.481 4.72099 197.279 8.51802 201.962 8.51802V8.51802ZM201.962 17V12.759C194.937 12.759 189.241 7.06269 189.241 0.0368042V0H185V0.0368042C185 9.40364 192.595 17 201.962 17V17ZM193.481 33.9624H197.722C197.722 31.6207 199.62 29.7214 201.962 29.7214H202V25.4812H201.962C197.279 25.4812 193.481 29.2782 193.481 33.9624V33.9624ZM185 33.9624H189.241C189.241 26.9365 194.937 21.2402 201.962 21.2402H202V17H201.962C192.595 17 185 24.5956 185 33.9624V33.9624ZM168.038 25.4812V29.7214C170.38 29.7214 172.278 31.6207 172.278 33.9624V34L176.519 34V33.9624C176.519 29.2782 172.721 25.4812 168.038 25.4812V25.4812ZM168.038 17V21.2402C175.063 21.2402 180.759 26.9365 180.759 33.9624V34H185V33.9624C185 24.5956 177.405 17 168.038 17V17ZM176.519 0.0368042L172.278 0.0368042C172.278 2.37851 170.38 4.27779 168.038 4.27779H168V8.51802H168.038C172.721 8.51802 176.519 4.72099 176.519 0.0368042V0.0368042ZM168 17V12.759H168.038C175.063 12.759 180.759 7.06269 180.759 0.0368042H185C185 9.40364 177.405 17 168.038 17H168Z" fill="#EFD229"/>
<path fill-rule="evenodd" clip-rule="evenodd" d="M168.962 8.51802V4.27779C166.62 4.27779 164.722 2.37851 164.722 0.0368042V0H160.481V0.0368042C160.481 4.72099 164.279 8.51802 168.962 8.51802V8.51802ZM168.962 17V12.759C161.937 12.759 156.241 7.06269 156.241 0.0368042V0H152V0.0368042C152 9.40364 159.595 17 168.962 17V17ZM160.481 33.9624H164.722C164.722 31.6207 166.621 29.7214 168.962 29.7214H169V25.4812H168.962C164.279 25.4812 160.481 29.2782 160.481 33.9624V33.9624ZM152 33.9624H156.241C156.241 26.9365 161.937 21.2402 168.962 21.2402H169V17H168.962C159.595 17 152 24.5956 152 33.9624V33.9624ZM135.038 25.4812V29.7214C137.38 29.7214 139.278 31.6207 139.278 33.9624V34L143.519 34V33.9624C143.519 29.2782 139.721 25.4812 135.038 25.4812V25.4812ZM135.038 17V21.2402C142.063 21.2402 147.76 26.9365 147.76 33.9624V34H152V33.9624C152 24.5956 144.405 17 135.038 17V17ZM143.519 0.0368042L139.278 0.0368042C139.278 2.37851 137.38 4.27779 135.038 4.27779H135V8.51802H135.038C139.721 8.51802 143.519 4.72099 143.519 0.0368042V0.0368042ZM135 17V12.759H135.038C142.063 12.759 147.76 7.06269 147.76 0.0368042H152C152 9.40364 144.405 17 135.038 17H135Z" fill="#EFD229"/>
<path fill-rule="evenodd" clip-rule="evenodd" d="M134.962 8.51802V4.27779C132.621 4.27779 130.722 2.37851 130.722 0.0368042V0H126.481V0.0368042C126.481 4.72099 130.279 8.51802 134.962 8.51802V8.51802ZM134.962 17V12.759C127.937 12.759 122.241 7.06269 122.241 0.0368042V0H118V0.0368042C118 9.40364 125.595 17 134.962 17V17ZM126.481 33.9624H130.722C130.722 31.6207 132.621 29.7214 134.962 29.7214H135V25.4812H134.962C130.279 25.4812 126.481 29.2782 126.481 33.9624V33.9624ZM118 33.9624H122.241C122.241 26.9365 127.937 21.2402 134.962 21.2402H135V17H134.962C125.595 17 118 24.5956 118 33.9624V33.9624ZM101.038 25.4812V29.7214C103.38 29.7214 105.278 31.6207 105.278 33.9624V34L109.519 34V33.9624C109.519 29.2782 105.722 25.4812 101.038 25.4812V25.4812ZM101.038 17V21.2402C108.063 21.2402 113.76 26.9365 113.76 33.9624V34H118V33.9624C118 24.5956 110.405 17 101.038 17V17ZM109.519 0.0368042L105.278 0.0368042C105.278 2.37851 103.38 4.27779 101.038 4.27779H101V8.51802H101.038C105.722 8.51802 109.519 4.72099 109.519 0.0368042V0.0368042ZM101 17V12.759H101.038C108.063 12.759 113.76 7.06269 113.76 0.0368042H118C118 9.40364 110.405 17 101.038 17H101Z" fill="#EFD229"/>
<path fill-rule="evenodd" clip-rule="evenodd" d="M101.962 8.51802V4.27779C99.6208 4.27779 97.7223 2.37851 97.7223 0.0368042V0H93.4806V0.0368042C93.4806 4.72099 97.2791 8.51802 101.962 8.51802V8.51802ZM101.962 17V12.759C94.9375 12.759 89.2405 7.06269 89.2405 0.0368042V0H85.0004V0.0368042C85.0004 9.40364 92.595 17 101.962 17V17ZM93.4806 33.9624H97.7223C97.7223 31.6207 99.6208 29.7214 101.962 29.7214H102V25.4812H101.962C97.2791 25.4812 93.4806 29.2782 93.4806 33.9624V33.9624ZM85.0004 33.9624H89.2405C89.2405 26.9365 94.9375 21.2402 101.962 21.2402H102V17H101.962C92.595 17 85.0004 24.5956 85.0004 33.9624V33.9624ZM68.0383 25.4812V29.7214C70.38 29.7214 72.2785 31.6207 72.2785 33.9624V34L76.5186 34V33.9624C76.5186 29.2782 72.7216 25.4812 68.0383 25.4812V25.4812ZM68.0383 17V21.2402C75.0633 21.2402 80.7603 26.9365 80.7603 33.9624V34H85.0004V33.9624C85.0004 24.5956 77.405 17 68.0383 17V17ZM76.5186 0.0368042L72.2785 0.0368042C72.2785 2.37851 70.38 4.27779 68.0383 4.27779H68V8.51802H68.0383C72.7216 8.51802 76.5186 4.72099 76.5186 0.0368042V0.0368042ZM68 17V12.759H68.0383C75.0633 12.759 80.7603 7.06269 80.7603 0.0368042H85.0004C85.0004 9.40364 77.405 17 68.0383 17H68Z" fill="#EFD229"/>
<path fill-rule="evenodd" clip-rule="evenodd" d="M67.9624 8.51802V4.27779C65.6207 4.27779 63.7222 2.37851 63.7222 0.0368042V0H59.4812V0.0368042C59.4812 4.72099 63.279 8.51802 67.9624 8.51802V8.51802ZM67.9624 17V12.759C60.9373 12.759 55.2402 7.06269 55.2402 0.0368042V0H51V0.0368042C51 9.40364 58.5956 17 67.9624 17V17ZM59.4812 33.9624H63.7222C63.7222 31.6207 65.6207 29.7214 67.9624 29.7214H68V25.4812H67.9624C63.279 25.4812 59.4812 29.2782 59.4812 33.9624V33.9624ZM51 33.9624H55.2402C55.2402 26.9365 60.9373 21.2402 67.9624 21.2402H68V17H67.9624C58.5956 17 51 24.5956 51 33.9624V33.9624ZM34.0376 25.4812V29.7214C36.3793 29.7214 38.2778 31.6207 38.2778 33.9624V34L42.518 34V33.9624C42.518 29.2782 38.721 25.4812 34.0376 25.4812V25.4812ZM34.0376 17V21.2402C41.0627 21.2402 46.7598 26.9365 46.7598 33.9624V34H51V33.9624C51 24.5956 43.4044 17 34.0376 17V17ZM42.518 0.0368042L38.2778 0.0368042C38.2778 2.37851 36.3793 4.27779 34.0376 4.27779H34L34 8.51802H34.0376C38.721 8.51802 42.518 4.72099 42.518 0.0368042V0.0368042ZM34 17V12.759H34.0376C41.0627 12.759 46.7598 7.06269 46.7598 0.0368042H51C51 9.40364 43.4044 17 34.0376 17H34Z" fill="#EFD229"/>
<path fill-rule="evenodd" clip-rule="evenodd" d="M33.9617 8.51802L33.9617 4.27779C31.62 4.27779 29.7215 2.37851 29.7215 0.0368042V0H25.4806V0.0368042C25.4806 4.72099 29.2784 8.51802 33.9617 8.51802V8.51802ZM33.9617 17V12.759C26.9367 12.759 21.2397 7.06269 21.2397 0.0368042V0H16.9996V0.0368042C16.9996 9.40364 24.595 17 33.9617 17V17ZM25.4806 33.9624H29.7215C29.7215 31.6207 31.62 29.7214 33.9617 29.7214H34V25.4812H33.9617C29.2784 25.4812 25.4806 29.2782 25.4806 33.9624V33.9624ZM16.9996 33.9624H21.2397C21.2397 26.9365 26.9367 21.2402 33.9617 21.2402H34V17H33.9617C24.595 17 16.9996 24.5956 16.9996 33.9624V33.9624ZM0.03757 25.4812V29.7214C2.37922 29.7214 4.2777 31.6207 4.2777 33.9624V34L8.51859 34V33.9624C8.51859 29.2782 4.72088 25.4812 0.03757 25.4812V25.4812ZM0.037571 17V21.2402C7.06254 21.2402 12.7595 26.9365 12.7595 33.9624V34H16.9996V33.9624C16.9996 24.5956 9.40496 17 0.037571 17V17ZM8.51859 0.0368042L4.2777 0.0368042C4.2777 2.37851 2.37922 4.27779 0.03757 4.27779H-9.53674e-07L-9.53674e-07 8.51802H0.03757C4.72088 8.51802 8.51859 4.72099 8.51859 0.0368042V0.0368042ZM0 17V12.759H0.037571C7.06254 12.759 12.7595 7.06269 12.7595 0.0368042H16.9996C16.9996 9.40364 9.40496 17 0.037571 17H0Z" fill="#EFD229"/>
</svg>
