<svg width="259" height="75" viewBox="0 0 259 75" fill="none" xmlns="http://www.w3.org/2000/svg">
<path fill-rule="evenodd" clip-rule="evenodd" d="M62.0138 38.3668C62.0138 47.9228 69.7598 55.6688 79.3188 55.6688H83.9758V14.9558H62.0138V38.3668Z" fill="black"/>
<path fill-rule="evenodd" clip-rule="evenodd" d="M120.544 0.0221004H120.44V16.5251H113.982C98.2779 16.5251 87.7169 22.8881 87.7169 36.5601C87.7169 46.8401 95.0159 54.4361 106.099 55.6681C106.099 55.6681 117.687 44.9551 117.974 44.6651C118.238 44.3901 118.082 44.5241 117.944 44.6551C114.298 43.5161 110.707 39.8081 110.707 33.5831C110.707 28.6581 112.87 22.4671 120.44 20.0861V38.3671C120.44 47.9221 128.186 55.6681 137.742 55.6681H142.399V0.0221004H120.544Z" fill="black"/>
<path fill-rule="evenodd" clip-rule="evenodd" d="M100.502 14.9557L120.439 0.0216999H100.502V14.9557Z" fill="black"/>
<path fill-rule="evenodd" clip-rule="evenodd" d="M12.7848 14.9557L32.7198 0.0216999H12.7848V14.9557Z" fill="black"/>
<path fill-rule="evenodd" clip-rule="evenodd" d="M32.7192 0.0221004V16.5251H26.2642C10.5602 16.5251 0.000244141 22.8881 0.000244141 36.5601C0.000244141 46.8401 7.29924 54.4361 18.3782 55.6681C18.3782 55.6681 29.9692 44.9551 30.2572 44.6651C30.5212 44.3901 30.3642 44.5241 30.2272 44.6551C26.5812 43.5161 22.9902 39.8081 22.9902 33.5831C22.9902 28.6581 25.1522 22.4671 32.7192 20.0861V38.3671C32.7192 47.9221 40.4682 55.6681 50.0242 55.6681H54.6812V0.0221004H32.8232H32.7192Z" fill="black"/>
<path fill-rule="evenodd" clip-rule="evenodd" d="M72.9951 10.7613C78.8041 10.7613 83.5101 5.8303 83.5101 0.0223004C83.5101 -0.0526996 83.5001 0.0963004 83.5001 0.0223004H62.4901C62.4901 0.0963004 62.4801 -0.0526996 62.4801 0.0223004C62.4801 5.8303 67.1861 10.7613 72.9951 10.7613" fill="black"/>
<path fill-rule="evenodd" clip-rule="evenodd" d="M172.756 27.8443L160.196 34.1253L172.756 40.4073L185.319 34.1253L172.756 27.8443Z" fill="#F05663"/>
<path fill-rule="evenodd" clip-rule="evenodd" d="M160.196 46.6891L172.756 52.9671L185.319 46.6891L172.756 40.4081L160.196 46.6891Z" fill="#F05663"/>
<path fill-rule="evenodd" clip-rule="evenodd" d="M172.756 2.7213L160.196 9.0023L172.756 15.2843L185.319 9.0023L172.756 2.7213Z" fill="#F05663"/>
<path fill-rule="evenodd" clip-rule="evenodd" d="M197.881 27.8443L185.318 34.1253L197.881 40.4073L209.368 34.6623L220.859 40.4073L233.421 34.1253L220.859 27.8443L209.368 33.5893L197.881 27.8443Z" fill="#F05663"/>
<path fill-rule="evenodd" clip-rule="evenodd" d="M172.756 15.2848L160.196 21.5658L172.756 27.8448L185.319 21.5658L172.756 15.2848Z" fill="#F05663"/>
<path fill-rule="evenodd" clip-rule="evenodd" d="M209.369 9.5396L220.859 15.2846L233.422 9.0026L220.859 2.7216L209.369 8.4666L197.882 2.7216L185.319 9.0026L197.882 15.2846L209.369 9.5396Z" fill="#F05663"/>
<path fill-rule="evenodd" clip-rule="evenodd" d="M245.982 40.4078L258.545 34.1258L245.982 27.8448L233.421 34.1258L245.982 40.4078Z" fill="#F05663"/>
<path fill-rule="evenodd" clip-rule="evenodd" d="M245.982 52.9674L258.545 46.6894L245.982 40.4074L233.421 46.6894L245.982 52.9674Z" fill="#F05663"/>
<path fill-rule="evenodd" clip-rule="evenodd" d="M209.369 46.1529L197.882 40.4079L185.319 46.6889L197.882 52.9669L209.369 47.2249L220.859 52.9669L233.422 46.6889L220.859 40.4079L209.369 46.1529Z" fill="#F05663"/>
<path fill-rule="evenodd" clip-rule="evenodd" d="M209.369 21.0299L197.882 15.2849L185.319 21.5659L197.882 27.8439L209.369 22.1019L220.859 27.8439L233.422 21.5659L220.859 15.2849L209.369 21.0299Z" fill="#F05663"/>
<path fill-rule="evenodd" clip-rule="evenodd" d="M258.544 9.0025L245.981 2.7215L233.421 9.0025L245.981 15.2845L258.544 9.0025Z" fill="#F05663"/>
<path fill-rule="evenodd" clip-rule="evenodd" d="M245.982 15.2848L233.421 21.5658L245.982 27.8448L258.545 21.5658L245.982 15.2848Z" fill="#F05663"/>
<path fill-rule="evenodd" clip-rule="evenodd" d="M0.00244141 66.9L0.941441 67.278V73.047L0.00244141 73.413V74.251H3.40744V73.413L2.47844 73.047V67.278L3.40744 66.9V66.061H0.00244141V66.9Z" fill="black"/>
<path fill-rule="evenodd" clip-rule="evenodd" d="M13.5353 70.2262C13.5353 70.6012 13.5453 70.9862 13.5643 71.3842C13.5843 71.7822 13.6003 72.1342 13.6173 72.4372H13.5713L10.1303 66.0612H8.20227V74.2502H9.57927V70.1222C9.56927 69.7242 9.55627 69.3302 9.54027 68.9352C9.52027 68.5392 9.50027 68.1712 9.48827 67.8292H9.53327L12.9873 74.2502H14.9243V66.0612H13.5353V70.2262Z" fill="black"/>
<path fill-rule="evenodd" clip-rule="evenodd" d="M24.0371 70.2037C23.7501 69.9957 23.4041 69.7967 23.0001 69.6037C22.6311 69.4317 22.3341 69.2747 22.1061 69.1417C21.8741 69.0077 21.7081 68.8637 21.6001 68.7107C21.4931 68.5577 21.4411 68.3707 21.4411 68.1487C21.4411 67.8587 21.5321 67.6247 21.7151 67.4477C21.8971 67.2717 22.1651 67.1867 22.5171 67.1867C22.8141 67.1867 23.1171 67.2257 23.4241 67.3107C23.7301 67.3957 24.0401 67.5107 24.3531 67.6567L24.8361 66.4737C24.4971 66.3067 24.1481 66.1767 23.7791 66.0847C23.4141 65.9937 23.0061 65.9477 22.5631 65.9477C21.7671 65.9477 21.1281 66.1467 20.6421 66.5447C20.1561 66.9387 19.9141 67.4867 19.9141 68.1827C19.9141 68.6517 19.9991 69.0367 20.1651 69.3467C20.3351 69.6557 20.5631 69.9137 20.8471 70.1157C21.1341 70.3177 21.4541 70.4907 21.8061 70.6387C22.3571 70.8597 22.7551 71.0747 23.0061 71.2797C23.2541 71.4857 23.3781 71.7597 23.3781 72.0957C23.3781 72.3987 23.2771 72.6497 23.0751 72.8467C22.8721 73.0417 22.5561 73.1397 22.1291 73.1397C21.7441 73.1397 21.3531 73.0737 20.9521 72.9497C20.5511 72.8227 20.1791 72.6827 19.8331 72.5297V73.9057C20.1401 74.0587 20.4721 74.1767 20.8311 74.2517C21.1901 74.3267 21.5941 74.3657 22.0471 74.3657C22.9741 74.3657 23.6821 74.1537 24.1741 73.7357C24.6661 73.3147 24.9141 72.7417 24.9141 72.0147C24.9141 71.5867 24.8431 71.2277 24.6931 70.9407C24.5421 70.6537 24.3241 70.4097 24.0371 70.2037" fill="black"/>
<path fill-rule="evenodd" clip-rule="evenodd" d="M33.0225 69.691C32.7415 69.91 32.3505 70.017 31.8555 70.017H31.2805V67.278H32.0505C32.9835 67.278 33.4495 67.725 33.4495 68.619C33.4495 69.118 33.3065 69.473 33.0225 69.691M32.1055 66.061H29.7445V74.251H31.2805V71.234H32.0145C32.7645 71.234 33.3555 71.107 33.7925 70.856C34.2295 70.604 34.5395 70.275 34.7215 69.871C34.9045 69.463 34.9995 69.029 34.9995 68.563C34.9995 67.774 34.7645 67.161 34.2975 66.72C33.8315 66.28 33.1005 66.061 32.1055 66.061" fill="black"/>
<path fill-rule="evenodd" clip-rule="evenodd" d="M39.3086 66.9L40.2506 67.278V73.047L39.3086 73.413V74.251H42.7166V73.413L41.7876 73.047V67.278L42.7166 66.9V66.061H39.3086V66.9Z" fill="black"/>
<path fill-rule="evenodd" clip-rule="evenodd" d="M49.7486 69.8121H49.0476V67.2881H49.7256C50.2376 67.2881 50.6166 67.3821 50.8606 67.5681C51.1046 67.7571 51.2266 68.0741 51.2266 68.5171C51.2266 69.3811 50.7366 69.8121 49.7486 69.8121M52.3706 69.8801C52.6476 69.5381 52.7886 69.0651 52.7886 68.4711C52.7886 67.6601 52.5436 67.0561 52.0546 66.6581C51.5646 66.2601 50.8116 66.0611 49.7946 66.0611H47.5116V74.2501H49.0476V71.0151H50.0456L51.8266 74.2501H53.5676L51.3666 70.6501C51.7576 70.4811 52.0906 70.2261 52.3706 69.8801" fill="black"/>
<path fill-rule="evenodd" clip-rule="evenodd" d="M57.3994 66.9L58.3384 67.278V73.047L57.3994 73.413V74.251H60.8044V73.413L59.8754 73.047V67.278L60.8044 66.9V66.061H57.3994V66.9Z" fill="black"/>
<path fill-rule="evenodd" clip-rule="evenodd" d="M70.9356 70.2262C70.9356 70.6012 70.9456 70.9862 70.9616 71.3842C70.9816 71.7822 71.0006 72.1342 71.0146 72.4372H70.9686L67.5276 66.0612H65.6006V74.2502H66.9766V70.1222C66.9696 69.7242 66.9536 69.3302 66.9366 68.9352C66.9176 68.5392 66.9016 68.1712 66.8846 67.8292H66.9306L70.3846 74.2502H72.3216V66.0612H70.9356V70.2262Z" fill="black"/>
<path fill-rule="evenodd" clip-rule="evenodd" d="M80.7988 71.0064H82.3118V72.9804C82.1688 73.0164 81.9988 73.0514 81.8098 73.0804C81.6168 73.1134 81.4048 73.1264 81.1668 73.1264C80.6548 73.1264 80.2308 72.9994 79.8988 72.7484C79.5658 72.4974 79.3208 72.1484 79.1648 71.7044C79.0078 71.2614 78.9298 70.7484 78.9298 70.1684C78.9298 69.2654 79.1348 68.5404 79.5488 67.9994C79.9608 67.4584 80.5568 67.1844 81.3398 67.1844C81.6828 67.1844 82.0118 67.2304 82.3278 67.3204C82.6478 67.4154 82.9348 67.5204 83.1958 67.6444L83.7108 66.4414C83.3818 66.2934 83.0198 66.1764 82.6188 66.0854C82.2168 65.9904 81.7968 65.9474 81.3598 65.9474C80.5048 65.9474 79.7778 66.1174 79.1738 66.4634C78.5738 66.8064 78.1178 67.2914 77.8048 67.9184C77.4918 68.5474 77.3348 69.2874 77.3348 70.1464C77.3348 71.4894 77.6578 72.5294 78.2968 73.2634C78.9398 73.9974 79.8398 74.3654 80.9938 74.3654C81.5458 74.3654 82.0478 74.3264 82.5068 74.2514C82.9668 74.1734 83.3948 74.0634 83.7928 73.9194V69.7544H80.7988V71.0064Z" fill="black"/>
<path fill-rule="evenodd" clip-rule="evenodd" d="M96.776 66.0611H95.24V74.2501H99.93V73.0111H96.776V66.0611Z" fill="black"/>
<path fill-rule="evenodd" clip-rule="evenodd" d="M104.097 66.9L105.036 67.278V73.047L104.097 73.413V74.251H107.502V73.413L106.573 73.047V67.278L107.502 66.9V66.061H104.097V66.9Z" fill="black"/>
<path fill-rule="evenodd" clip-rule="evenodd" d="M112.296 74.2506H113.81V70.9246H116.507V69.6976H113.81V67.2876H116.712V66.0616H112.296V74.2506Z" fill="black"/>
<path fill-rule="evenodd" clip-rule="evenodd" d="M121.52 74.2506H125.936V73.0116H123.056V70.6046H125.753V69.3746H123.056V67.2876H125.936V66.0616H121.52V74.2506Z" fill="black"/>
<path fill-rule="evenodd" clip-rule="evenodd" d="M132.483 66.0611H130.947V74.2501H135.637V73.0111H132.483V66.0611Z" fill="black"/>
<path fill-rule="evenodd" clip-rule="evenodd" d="M145.02 72.3238C144.707 72.8518 144.192 73.1158 143.474 73.1158C142.763 73.1158 142.245 72.8518 141.925 72.3238C141.605 71.7988 141.442 71.0708 141.442 70.1448C141.442 69.2208 141.605 68.4948 141.925 67.9668C142.245 67.4378 142.767 67.1738 143.484 67.1738C144.195 67.1738 144.707 67.4378 145.02 67.9668C145.336 68.4948 145.493 69.2208 145.493 70.1448C145.493 71.0708 145.336 71.7988 145.02 72.3238M145.522 66.4558C144.981 66.1098 144.303 65.9338 143.484 65.9338C142.652 65.9338 141.961 66.1098 141.419 66.4558C140.875 66.8048 140.474 67.2948 140.209 67.9278C139.945 68.5558 139.815 69.2938 139.815 70.1358C139.815 70.9828 139.945 71.7228 140.209 72.3588C140.474 72.9958 140.875 73.4878 141.413 73.8408C141.955 74.1888 142.639 74.3648 143.474 74.3648C144.299 74.3648 144.981 74.1888 145.522 73.8408C146.061 73.4878 146.461 72.9958 146.726 72.3628C146.987 71.7328 147.121 70.9928 147.121 70.1448C147.121 69.2968 146.987 68.5558 146.726 67.9278C146.461 67.2948 146.061 66.8048 145.522 66.4558" fill="black"/>
<path fill-rule="evenodd" clip-rule="evenodd" d="M157.477 70.2262C157.477 70.6012 157.487 70.9862 157.506 71.3842C157.526 71.7822 157.542 72.1342 157.559 72.4372H157.513L154.073 66.0612H152.145V74.2502H153.521V70.1222C153.511 69.7242 153.498 69.3302 153.482 68.9352C153.462 68.5392 153.443 68.1712 153.43 67.8292H153.475L156.926 74.2502H158.867V66.0612H157.477V70.2262Z" fill="black"/>
<path fill-rule="evenodd" clip-rule="evenodd" d="M167.342 71.0064H168.856V72.9804C168.712 73.0164 168.542 73.0514 168.353 73.0804C168.16 73.1134 167.948 73.1264 167.71 73.1264C167.198 73.1264 166.775 72.9994 166.442 72.7484C166.11 72.4974 165.864 72.1484 165.708 71.7044C165.551 71.2614 165.473 70.7484 165.473 70.1684C165.473 69.2654 165.679 68.5404 166.093 67.9994C166.507 67.4584 167.101 67.1844 167.883 67.1844C168.226 67.1844 168.559 67.2304 168.875 67.3204C169.192 67.4154 169.479 67.5204 169.739 67.6444L170.258 66.4414C169.925 66.2934 169.563 66.1764 169.162 66.0854C168.761 65.9904 168.34 65.9474 167.906 65.9474C167.048 65.9474 166.321 66.1174 165.718 66.4634C165.117 66.8064 164.664 67.2914 164.348 67.9184C164.035 68.5474 163.878 69.2874 163.878 70.1464C163.878 71.4894 164.201 72.5294 164.84 73.2634C165.487 73.9974 166.383 74.3654 167.537 74.3654C168.089 74.3654 168.594 74.3264 169.051 74.2514C169.511 74.1734 169.938 74.0634 170.336 73.9194V69.7544H167.342V71.0064Z" fill="black"/>
<path fill-rule="evenodd" clip-rule="evenodd" d="M183.321 66.0611H181.785V74.2501H186.475V73.0111H183.321V66.0611Z" fill="black"/>
<path fill-rule="evenodd" clip-rule="evenodd" d="M191.225 74.2506H195.641V73.0116H192.761V70.6046H195.458V69.3746H192.761V67.2876H195.641V66.0616H191.225V74.2506Z" fill="black"/>
<path fill-rule="evenodd" clip-rule="evenodd" d="M202.362 70.8199L203.005 68.7129C203.056 68.5199 203.119 68.2959 203.187 68.0349C203.256 67.7739 203.318 67.5029 203.37 67.2189C203.419 67.4639 203.477 67.7279 203.555 68.0059C203.631 68.2859 203.696 68.5199 203.752 68.7129L204.404 70.8199H202.362ZM202.444 66.0289L199.691 74.2509H201.341L201.97 72.0819H204.772L205.402 74.2509H207.052L204.29 66.0289H202.444Z" fill="black"/>
<path fill-rule="evenodd" clip-rule="evenodd" d="M213.696 69.8121H212.995V67.2881H213.674C214.185 67.2881 214.563 67.3821 214.808 67.5681C215.052 67.7571 215.174 68.0741 215.174 68.5171C215.174 69.3811 214.681 69.8121 213.696 69.8121M216.318 69.8801C216.595 69.5381 216.732 69.0651 216.732 68.4711C216.732 67.6601 216.491 67.0561 216.002 66.6581C215.509 66.2601 214.759 66.0611 213.742 66.0611H211.459V74.2501H212.995V71.0151H213.993L215.773 74.2501H217.515L215.314 70.6501C215.702 70.4811 216.038 70.2261 216.318 69.8801" fill="black"/>
<path fill-rule="evenodd" clip-rule="evenodd" d="M227.266 70.2262C227.266 70.6012 227.276 70.9862 227.292 71.3842C227.312 71.7822 227.328 72.1342 227.344 72.4372H227.298L223.858 66.0612H221.93V74.2502H223.307V70.1222C223.3 69.7242 223.284 69.3302 223.268 68.9352C223.247 68.5392 223.228 68.1712 223.215 67.8292H223.261L226.715 74.2502H228.652V66.0612H227.266V70.2262Z" fill="black"/>
<path fill-rule="evenodd" clip-rule="evenodd" d="M234.021 74.2506H238.437V73.0116H235.557V70.6046H238.254V69.3746H235.557V67.2876H238.437V66.0616H234.021V74.2506Z" fill="black"/>
<path fill-rule="evenodd" clip-rule="evenodd" d="M245.686 69.8121H244.985V67.2881H245.664C246.175 67.2881 246.554 67.3821 246.798 67.5681C247.043 67.7571 247.166 68.0741 247.166 68.5171C247.166 69.3811 246.674 69.8121 245.686 69.8121M248.308 69.8801C248.585 69.5381 248.726 69.0651 248.726 68.4711C248.726 67.6601 248.481 67.0561 247.992 66.6581C247.502 66.2601 246.749 66.0611 245.732 66.0611H243.449V74.2501H244.985V71.0151H245.983L247.764 74.2501H249.505L247.304 70.6501C247.696 70.4811 248.028 70.2261 248.308 69.8801" fill="black"/>
<path fill-rule="evenodd" clip-rule="evenodd" d="M258.322 70.941C258.173 70.654 257.954 70.41 257.667 70.204C257.38 69.996 257.034 69.796 256.63 69.604C256.261 69.431 255.965 69.275 255.736 69.141C255.505 69.007 255.339 68.864 255.23 68.711C255.123 68.557 255.071 68.371 255.071 68.149C255.071 67.859 255.162 67.625 255.344 67.448C255.527 67.272 255.795 67.187 256.147 67.187C256.444 67.187 256.747 67.226 257.053 67.311C257.36 67.396 257.667 67.51 257.983 67.657L258.466 66.473C258.13 66.306 257.778 66.176 257.409 66.085C257.044 65.994 256.636 65.948 256.192 65.948C255.397 65.948 254.758 66.147 254.271 66.545C253.786 66.939 253.545 67.487 253.545 68.182C253.545 68.652 253.629 69.037 253.796 69.346C253.965 69.656 254.193 69.914 254.477 70.116C254.764 70.318 255.084 70.491 255.436 70.638C255.987 70.86 256.385 71.075 256.636 71.28C256.884 71.486 257.008 71.759 257.008 72.095C257.008 72.399 256.907 72.65 256.705 72.846C256.503 73.042 256.186 73.139 255.759 73.139C255.374 73.139 254.982 73.074 254.582 72.95C254.18 72.823 253.808 72.683 253.463 72.53V73.906C253.769 74.059 254.102 74.176 254.461 74.252C254.819 74.327 255.224 74.366 255.677 74.366C256.603 74.366 257.311 74.154 257.803 73.736C258.3 73.315 258.544 72.742 258.544 72.014C258.544 71.587 258.472 71.228 258.322 70.941" fill="black"/>
</svg>
